…
## For all city

``` r
final = 
  new %>% 
  mutate(summary = map2(.x = new %>% pull(unsolved), 
             .y = new %>% pull(total_homicides), 
             ~p_test(x = .x, n = .y))) %>% 
  unnest()

final
```

    ## # A tibble: 50 × 6
    ##    city_state     total_homicides unsolved estimate conf.low conf.high
    ##    <chr>                    <int>    <int>    <dbl>    <dbl>     <dbl>
    ##  1 Albuquerque_NM             378      146    0.386    0.337     0.438
    ##  2 Atlanta_GA                 973      373    0.383    0.353     0.415
    ##  3 Baltimore_MD              2827     1825    0.646    0.628     0.663
    ##  4 Baton Rouge_LA             424      196    0.462    0.414     0.511
    ##  5 Birmingham_AL              800      347    0.434    0.399     0.469
    ##  6 Boston_MA                  614      310    0.505    0.465     0.545
    ##  7 Buffalo_NY                 521      319    0.612    0.569     0.654
    ##  8 Charlotte_NC               687      206    0.300    0.266     0.336
    ##  9 Chicago_IL                5535     4073    0.736    0.724     0.747
    ## 10 Cincinnati_OH              694      309    0.445    0.408     0.483
    ## # … with 40 more rows
…
